INDEX VERSION 1.130+D:\Rest\Java\projet_tutore_dut1\workspace\.metadata\.plugins\org.eclipse.jdt.core
3698447926.index
2709225165.index
3666609613.index
3524145118.index
3141958188.index
3620471903.index
4265864773.index
922380862.index
559129880.index
628019425.index
2272273464.index
848469205.index
648612256.index
1477788888.index
148409970.index
1689259093.index
1484906476.index
2470519452.index
194259052.index
